%YAML 1.1
%TAG !u! tag:unity3d.com,2011:
--- !u!114 &11400000
MonoBehaviour:
  m_ObjectHideFlags: 0
  m_CorrespondingSourceObject: {fileID: 0}
  m_PrefabInstance: {fileID: 0}
  m_PrefabAsset: {fileID: 0}
  m_GameObject: {fileID: 0}
  m_Enabled: 1
  m_EditorHideFlags: 0
  m_Script: {fileID: 11500000, guid: 8af93dd6a7f3dfa4cafc916ac8f8b1e2, type: 3}
  m_Name: CyborgWithPistol
  m_EditorClassIdentifier: 
  EnemyStruct:
    EnemyObject: {fileID: 5350675808816965370, guid: 34b2155d2374d1143904c3ea84b42d93,
      type: 3}
    GunData: {fileID: 11400000, guid: 4c19919fb9671c6419a62251116cbc2a, type: 2}
    Health: 20
    Speed: 8
