%YAML 1.1
%TAG !u! tag:unity3d.com,2011:
--- !u!114 &11400000
MonoBehaviour:
  m_ObjectHideFlags: 0
  m_CorrespondingSourceObject: {fileID: 0}
  m_PrefabInstance: {fileID: 0}
  m_PrefabAsset: {fileID: 0}
  m_GameObject: {fileID: 0}
  m_Enabled: 1
  m_EditorHideFlags: 0
  m_Script: {fileID: 11500000, guid: b157eee8dca95954f819eb270d5e6aad, type: 3}
  m_Name: Pistol
  m_EditorClassIdentifier: 
  GunStruct:
    GunIcon: {fileID: 10901, guid: 0000000000000000f000000000000000, type: 0}
    GunPrefab: {fileID: 3832703582600972128, guid: bceefb2a39f6db74d9bc9d006687b7f1,
      type: 3}
    WeaponType: 0
    ObjectWithFireParticles: {fileID: 7996288831724173747, guid: f028cbf3772816c47a6bc2c42a0c33c7,
      type: 3}
    FireSound: {fileID: 8300000, guid: 9efcbdd834f69034f92a636bc8042e1b, type: 3}
    PositionFromCamera: {x: 0.026, y: -0.021, z: 0.053}
    RotationFromCamera: {x: -183.623, y: -257.924, z: 186.531}
    FireRate: 2
    Damage: 6
    bulletCount: 10
    HitDistance: 144.21
    ShootForce: 5
